%YAML 1.1
%TAG !u! tag:unity3d.com,2011:
--- !u!1045 &1
EditorBuildSettings:
  m_ObjectHideFlags: 0
  serializedVersion: 2
  m_Scenes:
  - enabled: 0
    path: Assets/Scenes/Menu.unity
    guid: ba899a13c3d163f46bc051c6814b87aa
  - enabled: 1
    path: Assets/Scenes/Level.unity
    guid: 44f523479527f8c40bf107368defbdee
  - enabled: 0
    path: Assets/Photon/PhotonUnityNetworking/Demos/DemoHub/DemoHub-Scene.unity
    guid: 7dfd47dc8b9484dd79d8636d8603a9e5
  - enabled: 0
    path: Assets/Photon/PhotonChat/Demos/DemoChat/DemoChat-Scene.unity
    guid: ec07267f6a28fb044ac89845274e79af
  - enabled: 0
    path: Assets/Photon/PhotonUnityNetworking/Demos/DemoAsteroids/Scenes/DemoAsteroids-GameScene.unity
    guid: 98efc37d6307844488eb3e4247dde7e9
  - enabled: 0
    path: Assets/Photon/PhotonUnityNetworking/Demos/DemoAsteroids/Scenes/DemoAsteroids-LobbyScene.unity
    guid: c8a9d1312a49dc8488a9b32d83d659c7
  - enabled: 0
    path: Assets/Photon/PhotonUnityNetworking/Demos/DemoProcedural/Procedural-Scene.unity
    guid: e1fad393017993c4893877b645062417
  - enabled: 0
    path: Assets/Photon/PhotonUnityNetworking/Demos/DemoSlotRacer/SlotCar-Scene.unity
    guid: 711b38c07f2cf904f81b3422c67f1825
  - enabled: 0
    path: Assets/Photon/PhotonUnityNetworking/Demos/PunBasics-Tutorial/Scenes/PunBasics-Launcher.unity
    guid: bff77b01b50254edbb6edeeaba5ae8b3
  - enabled: 0
    path: Assets/Photon/PhotonUnityNetworking/Demos/PunBasics-Tutorial/Scenes/PunBasics-Room
      for 1.unity
    guid: 9b8561c6e396849a5ba48c3eb9524049
  - enabled: 0
    path: Assets/Photon/PhotonUnityNetworking/Demos/PunBasics-Tutorial/Scenes/PunBasics-Room
      for 2.unity
    guid: 764428c63577f4580af4ce54ca9f4b1b
  - enabled: 0
    path: Assets/Photon/PhotonUnityNetworking/Demos/PunBasics-Tutorial/Scenes/PunBasics-Room
      for 3.unity
    guid: e07afcca5bf1a41f5bd28f498656b7b8
  - enabled: 0
    path: Assets/Photon/PhotonUnityNetworking/Demos/PunBasics-Tutorial/Scenes/PunBasics-Room
      for 4.unity
    guid: e7a7f9734636d415ca84ef3aaf7680f6
  - enabled: 0
    path: Assets/Photon/PhotonUnityNetworking/Demos/PunCockpit/PunCockpit-Scene.unity
    guid: 9d6d60c803e244e51ba945a84b88757d
  - enabled: 0
    path: Assets/Photon/PhotonUnityNetworking/Demos/DemoSlotRacer/SlotCar-Scene.unity
    guid: 711b38c07f2cf904f81b3422c67f1825
  m_configObjects: {}
